<svg xmlns="http://www.w3.org/2000/svg" width="19" height="17.099" viewBox="0 0 19 17.099">
  <path id="_0154-paper-plane" data-name="0154-paper-plane" d="M18.841,1.121a.474.474,0,0,0-.5-.084L.291,8.637a.475.475,0,0,0,.034.888L5.7,11.317v5.358a.474.474,0,0,0,.316.447.485.485,0,0,0,.159.028.475.475,0,0,0,.369-.176l2.625-3.231,4.272,4.219a.473.473,0,0,0,.333.137.458.458,0,0,0,.119-.015.476.476,0,0,0,.337-.326l4.75-16.15a.475.475,0,0,0-.14-.488ZM15.324,3.338,6.086,10.444,1.822,9.023l13.5-5.685ZM6.65,11.209l8.944-6.88L8.76,12.74h0l-2.109,2.6Zm6.893,5.52L9.77,13,17.4,3.611,13.543,16.728Z" transform="translate(0 -1)" fill="#f3f3f3"/>
</svg>
