<svg id="_0148-mailbox-full" data-name="0148-mailbox-full" xmlns="http://www.w3.org/2000/svg" width="62.096" height="62.1" viewBox="0 0 62.096 62.1">
  <path id="Path_2" data-name="Path 2" d="M22.077,0H9.657A1.553,1.553,0,0,0,8.1,1.552V18.9a4.657,4.657,0,1,0,3.1,0V9.314H22.077a1.553,1.553,0,0,0,1.552-1.552V1.552A1.553,1.553,0,0,0,22.077,0ZM9.657,24.839a1.552,1.552,0,1,1,1.552-1.552A1.553,1.553,0,0,1,9.657,24.839ZM20.524,6.21H11.21V3.1h9.314Z" transform="translate(10.527)" fill="#d0d2d6"/>
  <path id="Path_3" data-name="Path 3" d="M59.267,15.246A16.411,16.411,0,0,0,54.982,8.67a10.256,10.256,0,0,0-6.936-2.565H26.393a1.552,1.552,0,0,0,0,3.1H48.046c8.662,0,10.771,13.152,10.935,24.839H9.313V9.211h4.657a1.552,1.552,0,1,0,0-3.1H9.313V4.553A1.553,1.553,0,0,0,7.761,3H1.551A1.553,1.553,0,0,0,0,4.553V38.706a1.553,1.553,0,0,0,1.552,1.552h6.21a1.553,1.553,0,0,0,1.552-1.552V37.154H24.838V54.231a1.553,1.553,0,0,0,1.552,1.552H35.7a1.553,1.553,0,0,0,1.552-1.552V37.154H60.543A1.553,1.553,0,0,0,62.1,35.6c0-8.647-.953-15.493-2.832-20.352ZM6.212,37.151h-3.1V6.1h3.1ZM34.155,52.675h-6.21V37.151h6.21Z" transform="translate(0.001 6.317)" fill="#d0d2d6"/>
</svg>
